{
  "name": "Giacomo Puccini",
  "works": [
    {
      "title": "Gianni Schicchi",
      "roles": ["Rinuccio"]
    },
    {
      "title": "La bohème",
      "roles": ["Rodolfo"]
    },
    {
      "title": "Madama Butterlfy",
      "roles": ["B. F. Pinkerton"]
    },
    {
      "title": "Tosca",
      "roles": ["Cavaradossi"]
    },
    {
      "title": "Turandot",
      "roles": ["Calaf"]
    }
  ]
}
