[
  {
    "title": "Wherever Two or Three Are Gathered: An Ecclesiology of Space" ,
    "format": "Conference Paper",
    "sponsor": "52nd annual meeting of the Wesleyan Theological Society",
    "location": "Asbury Theological Seminary",
    "date": "March 3, 2017",
    "url": "https://www.academia.edu/35590768/Wherever_Two_or_Three_Are_Gathered_An_Ecclesiology_of_Space"
  },
  {
    "author": "Coauthored with Charles L. Perabeau",
    "title": "#GeographyMatters: Keeping Religion and Race in Their Rightful Place" ,
    "format": "Conference Paper",
    "sponsor": "16th annual meeting of the Wesleyan Philosophical Society",
    "location": "Asbury Theological Seminary",
    "date": "March 2, 2017",
    "url": "https://www.academia.edu/35593721/_GeographyMatters_Keeping_Religion_and_Race_in_Their_Rightful_Place"
  },
  {
    "author": "Coauthored with Charles L. Perabeau",
    "title": "A World of Difference: Wesleyan Tradition and the Scientific Method in Global Contexts" ,
    "format": "Conference Paper",
    "sponsor": "15th annual meeting of the Wesleyan Philosophical Society",
    "location": "Point Loma Nazarene University",
    "date": "March 10, 2016",
    "url": "https://www.academia.edu/35593675/A_World_of_Difference_Wesleyan_Tradition_and_the_Scientific_Method_in_Global_Contexts"
  },
  {
    "title": "Metaphysics and the New Birth: Regenerating Wesleyan Convictions" ,
    "format": "Paper",
    "sponsor": "Global Christianities Workshop",
    "location": "The University of Chicago Divinity School",
    "date": "November 10, 2015",
    "url": "https://www.academia.edu/35593594/Metaphysics_and_the_New_Birth_Regenerating_Wesleyan_Convictions"
  },
  {
    "title": "Punctuation in Public Worship: The Semiotic Language Within Our Liturgies" ,
    "format": "Conference Paper",
    "sponsor": "14th annual meeting of the Wesleyan Philosophical Society",
    "location": "Mount Vernon Nazarene University",
    "date": "March 5, 2015",
    "url": "https://www.academia.edu/35590134/Punctuation_in_Public_Worship_the_Semiotic_Language_within_Our_Liturgies"
  }
]
